Differential chromatin accessibility and gene expression – CSAMA 2025 Biological Data Science
…
Rows: 24 Columns: 13

── Column specification ────────────────────────────────────────────────────────
Delimiter: ","
chr (10): names, sample_id, line_id, condition_name, macrophage_harvest, sal...
dbl  (3): replicate, ng_ul_mean, rna_auto

ℹ Use `spec()` to retrieve the full column specification for this data.
ℹ Specify the column types or set `show_col_types = FALSE` to quiet this message.

coldata

# A tibble: 24 × 5
   names          id     line   condition   files                               
   <chr>          <chr>  <fct>  <fct>       <chr>                               
 1 SAMEA103885102 diku_A diku_1 naive       C:/Users/cason/AppData/Local/R/win-…
 2 SAMEA103885347 diku_B diku_1 IFNg        C:/Users/cason/AppData/Local/R/win-…
 3 SAMEA103885043 diku_C diku_1 SL1344      C:/Users/cason/AppData/Local/R/win-…
 4 SAMEA103885392 diku_D diku_1 IFNg_SL1344 C:/Users/cason/AppData/Local/R/win-…
 5 SAMEA103885182 eiwy_A eiwy_1 naive       C:/Users/cason/AppData/Local/R/win-…
 6 SAMEA103885136 eiwy_B eiwy_1 IFNg        C:/Users/cason/AppData/Local/R/win-…
 7 SAMEA103885413 eiwy_C eiwy_1 SL1344      C:/Users/cason/AppData/Local/R/win-…
 8 SAMEA103884967 eiwy_D eiwy_1 IFNg_SL1344 C:/Users/cason/AppData/Local/R/win-…
 9 SAMEA103885368 fikt_A fikt_3 naive       C:/Users/cason/AppData/Local/R/win-…
10 SAMEA103885218 fikt_B fikt_3 IFNg        C:/Users/cason/AppData/Local/R/win-…
# ℹ 14 more rows
…
